{
  "userSecretsId": "aspnet-WebConsole-1c9000c1-58fd-43f4-b936-6b9150154ebc",

  "dependencies": {
    "Microsoft.ApplicationInsights.AspNetCore": "1.0.0",
    "Microsoft.AspNetCore.Authentication.Cookies": "1.0.0",
    "Microsoft.AspNetCore.Diagnostics": "1.0.0",
    "Microsoft.AspNetCore.Diagnostics.EntityFrameworkCore": "1.0.0",
    "Microsoft.AspNetCore.Identity.EntityFrameworkCore": "1.0.0",
    "Microsoft.AspNetCore.Mvc": "1.0.1",
    "Microsoft.AspNetCore.Razor.Tools": {
      "version": "1.0.0-preview2-final",
      "type": "build"
    },
    "Microsoft.AspNetCore.Routing": "1.0.1",
    "Microsoft.AspNetCore.Server.Kestrel": "1.0.1",
    "Microsoft.AspNetCore.StaticFiles": "1.0.0",
    "Microsoft.EntityFrameworkCore.SqlServer": "1.0.1",
    "Microsoft.EntityFrameworkCore.SqlServer.Design": {
      "version": "1.0.1",
      "type": "build"
    },
    "Microsoft.EntityFrameworkCore.Tools": {
      "version": "1.0.0-preview2-final",
      "type": "build"
    },
    "Microsoft.Extensions.Configuration.EnvironmentVariables": "1.1.0",
    "Microsoft.Extensions.Configuration.Json": "1.0.0",
    "Microsoft.Extensions.Configuration.UserSecrets": "1.0.0",
    "Microsoft.Extensions.Logging": "1.0.0",
    "Microsoft.Extensions.Logging.Console": "1.0.0",
    "Microsoft.Extensions.Logging.Debug": "1.0.0",
    "Microsoft.Extensions.Options.ConfigurationExtensions": "1.0.0",
    "Microsoft.ServiceFabric": "5.4.164",
    "Microsoft.ServiceFabric.AspNetCore.WebListener": "2.4.164-preview",
    "Microsoft.ServiceFabric.Data": "2.4.164",
    "Microsoft.ServiceFabric.Services": "2.4.164",
    "Microsoft.VisualStudio.Web.BrowserLink.Loader": "14.0.0",
    "Microsoft.VisualStudio.Web.CodeGeneration.Tools": {
      "version": "1.0.0-preview2-final",
      "type": "build"
    },
    "Microsoft.VisualStudio.Web.CodeGenerators.Mvc": {
      "version": "1.0.0-preview2-final",
      "type": "build"
    }
  },

  "tools": {
    "BundlerMinifier.Core": "2.0.238",
    "Microsoft.AspNetCore.Razor.Tools": "1.0.0-preview2-final",
    "Microsoft.EntityFrameworkCore.Tools": "1.0.0-preview2-final",
    "Microsoft.Extensions.SecretManager.Tools": "1.0.0-preview2-final",
    "Microsoft.VisualStudio.Web.CodeGeneration.Tools": {
      "version": "1.0.0-preview2-final",
      "imports": [
        "portable-net45+win8"
      ]
    }
  },

  "frameworks": {
    "net452": { }
  },

  "buildOptions": {
    "emitEntryPoint": true,
    "preserveCompilationContext": true
  },

  "publishOptions": {
    "include": [
      "wwwroot",
      "**/*.cshtml",
      "appsettings.json",
      "web.config"
    ]
  },

  "scripts": {
    "prepublish": [ "bower install", "dotnet bundle" ]
  }
}
